[
    {
        "name": "mikecao/flight",
        "version": "v1.1",
        "version_normalized": "1.1.0.0",
        "source": {
            "type": "git",
            "url": "https://github.com/mikecao/flight.git",
            "reference": "7e1a098f6cd8a5dcfc8fc7451508dc5f96ed00b5"
        },
        "dist": {
            "type": "zip",
            "url": "https://api.github.com/repos/mikecao/flight/zipball/7e1a098f6cd8a5dcfc8fc7451508dc5f96ed00b5",
            "reference": "7e1a098f6cd8a5dcfc8fc7451508dc5f96ed00b5",
            "shasum": ""
        },
        "require": {
            "php": ">=5.3.0"
        },
        "time": "2013-09-03 05:07:38",
        "type": "library",
        "installation-source": "dist",
        "autoload": {
            "files": [
                "flight/Flight.php"
            ]
        },
        "notification-url": "https://packagist.org/downloads/",
        "license": [
            "MIT"
        ],
        "authors": [
            {
                "name": "Mike Cao",
                "email": "mike@mikecao.com",
                "homepage": "http://www.mikecao.com/",
                "role": "Original Developer"
            }
        ],
        "description": "Flight is a fast, simple, extensible framework for PHP. Flight enables you to quickly and easily build RESTful web applications.",
        "homepage": "http://flightphp.com"
    },
    {
        "name": "sebastian/version",
        "version": "1.0.3",
        "version_normalized": "1.0.3.0",
        "source": {
            "type": "git",
            "url": "https://github.com/sebastianbergmann/version.git",
            "reference": "b6e1f0cf6b9e1ec409a0d3e2f2a5fb0998e36b43"
        },
        "dist": {
            "type": "zip",
            "url": "https://api.github.com/repos/sebastianbergmann/version/zipball/b6e1f0cf6b9e1ec409a0d3e2f2a5fb0998e36b43",
            "reference": "b6e1f0cf6b9e1ec409a0d3e2f2a5fb0998e36b43",
            "shasum": ""
        },
        "time": "2014-03-07 15:35:33",
        "type": "library",
        "installation-source": "dist",
        "autoload": {
            "classmap": [
                "src/"
            ]
        },
        "notification-url": "https://packagist.org/downloads/",
        "license": [
            "BSD-3-Clause"
        ],
        "authors": [
            {
                "name": "Sebastian Bergmann",
                "email": "sebastian@phpunit.de",
                "role": "lead"
            }
        ],
        "description": "Library that helps with managing the version number of Git-hosted PHP projects",
        "homepage": "https://github.com/sebastianbergmann/version"
    },
    {
        "name": "sebastian/exporter",
        "version": "1.0.1",
        "version_normalized": "1.0.1.0",
        "source": {
            "type": "git",
            "url": "https://github.com/sebastianbergmann/exporter.git",
            "reference": "1f9a98e6f5dfe0524cb8c6166f7c82f3e9ae1529"
        },
        "dist": {
            "type": "zip",
            "url": "https://api.github.com/repos/sebastianbergmann/exporter/zipball/1f9a98e6f5dfe0524cb8c6166f7c82f3e9ae1529",
            "reference": "1f9a98e6f5dfe0524cb8c6166f7c82f3e9ae1529",
            "shasum": ""
        },
        "require": {
            "php": ">=5.3.3"
        },
        "require-dev": {
            "phpunit/phpunit": "4.0.*@dev"
        },
        "time": "2014-02-16 08:26:31",
        "type": "library",
        "extra": {
            "branch-alias": {
                "dev-master": "1.0.x-dev"
            }
        },
        "installation-source": "dist",
        "autoload": {
            "classmap": [
                "src/"
            ]
        },
        "notification-url": "https://packagist.org/downloads/",
        "license": [
            "BSD-3-Clause"
        ],
        "authors": [
            {
                "name": "Sebastian Bergmann",
                "email": "sebastian@phpunit.de",
                "role": "lead"
            },
            {
                "name": "Jeff Welch",
                "email": "whatthejeff@gmail.com"
            },
            {
                "name": "Volker Dusch",
                "email": "github@wallbash.com"
            },
            {
                "name": "Adam Harvey",
                "email": "aharvey@php.net"
            },
            {
                "name": "Bernhard Schussek",
                "email": "bschussek@2bepublished.at"
            }
        ],
        "description": "Provides the functionality to export PHP variables for visualization",
        "homepage": "http://www.github.com/sebastianbergmann/exporter",
        "keywords": [
            "export",
            "exporter"
        ]
    },
    {
        "name": "sebastian/environment",
        "version": "1.0.0",
        "version_normalized": "1.0.0.0",
        "source": {
            "type": "git",
            "url": "https://github.com/sebastianbergmann/environment.git",
            "reference": "79517609ec01139cd7e9fded0dd7ce08c952ef6a"
        },
        "dist": {
            "type": "zip",
            "url": "https://api.github.com/repos/sebastianbergmann/environment/zipball/79517609ec01139cd7e9fded0dd7ce08c952ef6a",
            "reference": "79517609ec01139cd7e9fded0dd7ce08c952ef6a",
            "shasum": ""
        },
        "require": {
            "php": ">=5.3.3"
        },
        "require-dev": {
            "phpunit/phpunit": "4.0.*@dev"
        },
        "time": "2014-02-18 16:17:19",
        "type": "library",
        "extra": {
            "branch-alias": {
                "dev-master": "1.0.x-dev"
            }
        },
        "installation-source": "dist",
        "autoload": {
            "classmap": [
                "src/"
            ]
        },
        "notification-url": "https://packagist.org/downloads/",
        "license": [
            "BSD-3-Clause"
        ],
        "authors": [
            {
                "name": "Sebastian Bergmann",
                "email": "sebastian@phpunit.de",
                "role": "lead"
            }
        ],
        "description": "Provides functionality to handle HHVM/PHP environments",
        "homepage": "http://www.github.com/sebastianbergmann/environment",
        "keywords": [
            "Xdebug",
            "environment",
            "hhvm"
        ]
    },
    {
        "name": "sebastian/diff",
        "version": "1.1.0",
        "version_normalized": "1.1.0.0",
        "source": {
            "type": "git",
            "url": "https://github.com/sebastianbergmann/diff.git",
            "reference": "1e091702a5a38e6b4c1ba9ca816e3dd343df2e2d"
        },
        "dist": {
            "type": "zip",
            "url": "https://api.github.com/repos/sebastianbergmann/diff/zipball/1e091702a5a38e6b4c1ba9ca816e3dd343df2e2d",
            "reference": "1e091702a5a38e6b4c1ba9ca816e3dd343df2e2d",
            "shasum": ""
        },
        "require": {
            "php": ">=5.3.3"
        },
        "time": "2013-08-03 16:46:33",
        "type": "library",
        "extra": {
            "branch-alias": {
                "dev-master": "1.1-dev"
            }
        },
        "installation-source": "dist",
        "autoload": {
            "classmap": [
                "src/"
            ]
        },
        "notification-url": "https://packagist.org/downloads/",
        "license": [
            "BSD-3-Clause"
        ],
        "authors": [
            {
                "name": "Sebastian Bergmann",
                "email": "sebastian@phpunit.de",
                "role": "lead"
            },
            {
                "name": "Kore Nordmann",
                "email": "mail@kore-nordmann.de"
            }
        ],
        "description": "Diff implementation",
        "homepage": "http://www.github.com/sebastianbergmann/diff",
        "keywords": [
            "diff"
        ]
    },
    {
        "name": "symfony/yaml",
        "version": "v2.4.2",
        "version_normalized": "2.4.2.0",
        "target-dir": "Symfony/Component/Yaml",
        "source": {
            "type": "git",
            "url": "https://github.com/symfony/Yaml.git",
            "reference": "bb6ddaf8956139d1b8c360b4b713ed0138e876b3"
        },
        "dist": {
            "type": "zip",
            "url": "https://api.github.com/repos/symfony/Yaml/zipball/bb6ddaf8956139d1b8c360b4b713ed0138e876b3",
            "reference": "bb6ddaf8956139d1b8c360b4b713ed0138e876b3",
            "shasum": ""
        },
        "require": {
            "php": ">=5.3.3"
        },
        "time": "2014-01-07 13:28:54",
        "type": "library",
        "extra": {
            "branch-alias": {
                "dev-master": "2.4-dev"
            }
        },
        "installation-source": "dist",
        "autoload": {
            "psr-0": {
                "Symfony\\Component\\Yaml\\": ""
            }
        },
        "notification-url": "https://packagist.org/downloads/",
        "license": [
            "MIT"
        ],
        "authors": [
            {
                "name": "Fabien Potencier",
                "email": "fabien@symfony.com",
                "homepage": "http://fabien.potencier.org",
                "role": "Lead Developer"
            },
            {
                "name": "Symfony Community",
                "homepage": "http://symfony.com/contributors"
            }
        ],
        "description": "Symfony Yaml Component",
        "homepage": "http://symfony.com"
    },
    {
        "name": "phpunit/php-text-template",
        "version": "1.2.0",
        "version_normalized": "1.2.0.0",
        "source": {
            "type": "git",
            "url": "https://github.com/sebastianbergmann/php-text-template.git",
            "reference": "206dfefc0ffe9cebf65c413e3d0e809c82fbf00a"
        },
        "dist": {
            "type": "zip",
            "url": "https://api.github.com/repos/sebastianbergmann/php-text-template/zipball/206dfefc0ffe9cebf65c413e3d0e809c82fbf00a",
            "reference": "206dfefc0ffe9cebf65c413e3d0e809c82fbf00a",
            "shasum": ""
        },
        "require": {
            "php": ">=5.3.3"
        },
        "time": "2014-01-30 17:20:04",
        "type": "library",
        "installation-source": "dist",
        "autoload": {
            "classmap": [
                "Text/"
            ]
        },
        "notification-url": "https://packagist.org/downloads/",
        "include-path": [
            ""
        ],
        "license": [
            "BSD-3-Clause"
        ],
        "authors": [
            {
                "name": "Sebastian Bergmann",
                "email": "sb@sebastian-bergmann.de",
                "role": "lead"
            }
        ],
        "description": "Simple template engine.",
        "homepage": "https://github.com/sebastianbergmann/php-text-template/",
        "keywords": [
            "template"
        ]
    },
    {
        "name": "phpunit/phpunit-mock-objects",
        "version": "2.0.3",
        "version_normalized": "2.0.3.0",
        "source": {
            "type": "git",
            "url": "https://github.com/sebastianbergmann/phpunit-mock-objects.git",
            "reference": "5888b2501d41c34f9132c959b073b23de83235aa"
        },
        "dist": {
            "type": "zip",
            "url": "https://api.github.com/repos/sebastianbergmann/phpunit-mock-objects/zipball/5888b2501d41c34f9132c959b073b23de83235aa",
            "reference": "5888b2501d41c34f9132c959b073b23de83235aa",
            "shasum": ""
        },
        "require": {
            "php": ">=5.3.3",
            "phpunit/php-text-template": "~1.2"
        },
        "require-dev": {
            "phpunit/phpunit": ">=4.0.0,<4.1.0"
        },
        "suggest": {
            "ext-soap": "*"
        },
        "time": "2014-03-11 09:46:18",
        "type": "library",
        "extra": {
            "branch-alias": {
                "dev-master": "2.0.x-dev"
            }
        },
        "installation-source": "dist",
        "autoload": {
            "classmap": [
                "src/"
            ]
        },
        "notification-url": "https://packagist.org/downloads/",
        "include-path": [
            ""
        ],
        "license": [
            "BSD-3-Clause"
        ],
        "authors": [
            {
                "name": "Sebastian Bergmann",
                "email": "sb@sebastian-bergmann.de",
                "role": "lead"
            }
        ],
        "description": "Mock Object library for PHPUnit",
        "homepage": "https://github.com/sebastianbergmann/phpunit-mock-objects/",
        "keywords": [
            "mock",
            "xunit"
        ]
    },
    {
        "name": "phpunit/php-timer",
        "version": "1.0.5",
        "version_normalized": "1.0.5.0",
        "source": {
            "type": "git",
            "url": "https://github.com/sebastianbergmann/php-timer.git",
            "reference": "19689d4354b295ee3d8c54b4f42c3efb69cbc17c"
        },
        "dist": {
            "type": "zip",
            "url": "https://api.github.com/repos/sebastianbergmann/php-timer/zipball/19689d4354b295ee3d8c54b4f42c3efb69cbc17c",
            "reference": "19689d4354b295ee3d8c54b4f42c3efb69cbc17c",
            "shasum": ""
        },
        "require": {
            "php": ">=5.3.3"
        },
        "time": "2013-08-02 07:42:54",
        "type": "library",
        "installation-source": "dist",
        "autoload": {
            "classmap": [
                "PHP/"
            ]
        },
        "notification-url": "https://packagist.org/downloads/",
        "include-path": [
            ""
        ],
        "license": [
            "BSD-3-Clause"
        ],
        "authors": [
            {
                "name": "Sebastian Bergmann",
                "email": "sb@sebastian-bergmann.de",
                "role": "lead"
            }
        ],
        "description": "Utility class for timing",
        "homepage": "https://github.com/sebastianbergmann/php-timer/",
        "keywords": [
            "timer"
        ]
    },
    {
        "name": "phpunit/php-token-stream",
        "version": "1.1.8",
        "version_normalized": "1.1.8.0",
        "source": {
            "type": "git",
            "url": "https://github.com/sebastianbergmann/php-token-stream.git",
            "reference": "66a29f0c5bdf85e70112f25ec9072efec5e2d426"
        },
        "dist": {
            "type": "zip",
            "url": "https://api.github.com/repos/sebastianbergmann/php-token-stream/zipball/66a29f0c5bdf85e70112f25ec9072efec5e2d426",
            "reference": "66a29f0c5bdf85e70112f25ec9072efec5e2d426",
            "shasum": ""
        },
        "require": {
            "ext-tokenizer": "*",
            "php": ">=5.3.3"
        },
        "time": "2013-08-02 19:10:55",
        "type": "library",
        "installation-source": "dist",
        "autoload": {
            "classmap": [
                "PHP/"
            ]
        },
        "notification-url": "https://packagist.org/downloads/",
        "include-path": [
            ""
        ],
        "license": [
            "BSD-3-Clause"
        ],
        "authors": [
            {
                "name": "Sebastian Bergmann",
                "email": "sb@sebastian-bergmann.de",
                "role": "lead"
            }
        ],
        "description": "Wrapper around PHP's tokenizer extension.",
        "homepage": "https://github.com/sebastianbergmann/php-token-stream/",
        "keywords": [
            "tokenizer"
        ]
    },
    {
        "name": "phpunit/php-file-iterator",
        "version": "1.3.4",
        "version_normalized": "1.3.4.0",
        "source": {
            "type": "git",
            "url": "https://github.com/sebastianbergmann/php-file-iterator.git",
            "reference": "acd690379117b042d1c8af1fafd61bde001bf6bb"
        },
        "dist": {
            "type": "zip",
            "url": "https://api.github.com/repos/sebastianbergmann/php-file-iterator/zipball/acd690379117b042d1c8af1fafd61bde001bf6bb",
            "reference": "acd690379117b042d1c8af1fafd61bde001bf6bb",
            "shasum": ""
        },
        "require": {
            "php": ">=5.3.3"
        },
        "time": "2013-10-10 15:34:57",
        "type": "library",
        "installation-source": "dist",
        "autoload": {
            "classmap": [
                "File/"
            ]
        },
        "notification-url": "https://packagist.org/downloads/",
        "include-path": [
            ""
        ],
        "license": [
            "BSD-3-Clause"
        ],
        "authors": [
            {
                "name": "Sebastian Bergmann",
                "email": "sb@sebastian-bergmann.de",
                "role": "lead"
            }
        ],
        "description": "FilterIterator implementation that filters files based on a list of suffixes.",
        "homepage": "https://github.com/sebastianbergmann/php-file-iterator/",
        "keywords": [
            "filesystem",
            "iterator"
        ]
    },
    {
        "name": "phpunit/php-code-coverage",
        "version": "2.0.1",
        "version_normalized": "2.0.1.0",
        "source": {
            "type": "git",
            "url": "https://github.com/sebastianbergmann/php-code-coverage.git",
            "reference": "23e6ac9513df2af67f9f713347f3e4bf4b59784c"
        },
        "dist": {
            "type": "zip",
            "url": "https://api.github.com/repos/sebastianbergmann/php-code-coverage/zipball/23e6ac9513df2af67f9f713347f3e4bf4b59784c",
            "reference": "23e6ac9513df2af67f9f713347f3e4bf4b59784c",
            "shasum": ""
        },
        "require": {
            "php": ">=5.3.3",
            "phpunit/php-file-iterator": "~1.3.1",
            "phpunit/php-text-template": "~1.2",
            "phpunit/php-token-stream": "~1.1.3",
            "sebastian/environment": "~1.0",
            "sebastian/version": "~1.0.3"
        },
        "require-dev": {
            "ext-xdebug": ">=2.1.4",
            "phpunit/phpunit": ">=4.0.0,<4.1.0"
        },
        "suggest": {
            "ext-dom": "*",
            "ext-xdebug": ">=2.2.1"
        },
        "time": "2014-03-07 16:03:14",
        "type": "library",
        "extra": {
            "branch-alias": {
                "dev-master": "2.0.x-dev"
            }
        },
        "installation-source": "dist",
        "autoload": {
            "classmap": [
                "src/"
            ]
        },
        "notification-url": "https://packagist.org/downloads/",
        "include-path": [
            ""
        ],
        "license": [
            "BSD-3-Clause"
        ],
        "authors": [
            {
                "name": "Sebastian Bergmann",
                "email": "sb@sebastian-bergmann.de",
                "role": "lead"
            }
        ],
        "description": "Library that provides collection, processing, and rendering functionality for PHP code coverage information.",
        "homepage": "https://github.com/sebastianbergmann/php-code-coverage",
        "keywords": [
            "coverage",
            "testing",
            "xunit"
        ]
    },
    {
        "name": "phpunit/phpunit",
        "version": "4.0.7",
        "version_normalized": "4.0.7.0",
        "source": {
            "type": "git",
            "url": "https://github.com/sebastianbergmann/phpunit.git",
            "reference": "726abb62e9ed37125cd5a75b01f3c0ed36050726"
        },
        "dist": {
            "type": "zip",
            "url": "https://api.github.com/repos/sebastianbergmann/phpunit/zipball/726abb62e9ed37125cd5a75b01f3c0ed36050726",
            "reference": "726abb62e9ed37125cd5a75b01f3c0ed36050726",
            "shasum": ""
        },
        "require": {
            "ext-dom": "*",
            "ext-pcre": "*",
            "ext-reflection": "*",
            "ext-spl": "*",
            "php": ">=5.3.3",
            "phpunit/php-code-coverage": ">=2.0.0,<2.1.0",
            "phpunit/php-file-iterator": "~1.3.1",
            "phpunit/php-text-template": "~1.2",
            "phpunit/php-timer": "~1.0.2",
            "phpunit/phpunit-mock-objects": ">=2.0.0,<2.1.0",
            "sebastian/diff": "~1.1",
            "sebastian/environment": "~1.0",
            "sebastian/exporter": "~1.0.1",
            "sebastian/version": "~1.0.3",
            "symfony/yaml": "~2.0"
        },
        "suggest": {
            "ext-json": "*",
            "ext-simplexml": "*",
            "ext-tokenizer": "*",
            "phpunit/php-invoker": "~1.1"
        },
        "time": "2014-03-12 15:09:38",
        "bin": [
            "phpunit"
        ],
        "type": "library",
        "extra": {
            "branch-alias": {
                "dev-master": "4.0.x-dev"
            }
        },
        "installation-source": "dist",
        "autoload": {
            "classmap": [
                "src/"
            ]
        },
        "notification-url": "https://packagist.org/downloads/",
        "include-path": [
            "",
            "../../symfony/yaml/"
        ],
        "license": [
            "BSD-3-Clause"
        ],
        "authors": [
            {
                "name": "Sebastian Bergmann",
                "email": "sebastian@phpunit.de",
                "role": "lead"
            }
        ],
        "description": "The PHP Unit Testing framework.",
        "homepage": "http://www.phpunit.de/",
        "keywords": [
            "phpunit",
            "testing",
            "xunit"
        ]
    }
]
